//Woo and Lam Pi
u=3;
p=4;
s=5;
n=1;
protocol;
p_1,p_2;i(p_1);c(1);i(p_1);
p_2,p_1;s_2(1);s_2(1),c[s_2(1)](1);s_2(1);
p_1,p_2;s_2(1),k_1#1(1);c[s_2(1)](1);<k_1#1(1),s_2(1)>;				 
p_2,p#1;s_2(1),i(p_1),k_1#1(1),k_2#1(1);c[s_2(1)](1);<k_2#1(1),i(p_1)|<k_1#1(1),s_2(1)>>;
p#1,p_2;s_2(1),k_2#1(1);c[s_2(1)](1);<k_2#1(1),s_2(1)>;
